{
  "version": "2024.01.2401",
  "versionCode": 2024012401,
  "zipUrl": "https://gitlab.com/nongthaihoang/google-sans-prime/-/raw/master/releases/GSP.zip",
  "changelog": "https://gitlab.com/nongthaihoang/google-sans-prime/-/raw/master/CHANGELOG.md"
}
